1  , err, Maschio, Adulto, Sciocco, S1, S2
14 , a,  Maschio,  Sciocco, S1, S2
2  , b, ~Maschio,  Sciocco, S1
2  , c, ~Maschio, ~Sciocco
2  , d,  Maschio, ~Sciocco
14 , e,  Adulto,   Sciocco
2  , f, ~Adulto,   Sciocco
2  , g, ~Adulto,  ~Sciocco
2  , h,  Adulto,  ~Sciocco