forall x:(A0_ProviderNumber(x) -> ( ~A1_ProviderNumber(x)  & ~A2_ProviderNumber(x)  & ~A3_ProviderNumber(x)  & ~A4_ProviderNumber(x)  & ~A5_ProviderNumber(x) ))
forall x:(A1_ProviderNumber(x) -> ( ~A0_ProviderNumber(x)  & ~A2_ProviderNumber(x)  & ~A3_ProviderNumber(x)  & ~A4_ProviderNumber(x)  & ~A5_ProviderNumber(x) ))
forall x:(A2_ProviderNumber(x) -> ( ~A0_ProviderNumber(x)  & ~A1_ProviderNumber(x)  & ~A3_ProviderNumber(x)  & ~A4_ProviderNumber(x)  & ~A5_ProviderNumber(x) ))
forall x:(A3_ProviderNumber(x) -> ( ~A0_ProviderNumber(x)  & ~A1_ProviderNumber(x)  & ~A2_ProviderNumber(x)  & ~A4_ProviderNumber(x)  & ~A5_ProviderNumber(x) ))
forall x:(A4_ProviderNumber(x) -> ( ~A0_ProviderNumber(x)  & ~A1_ProviderNumber(x)  & ~A2_ProviderNumber(x)  & ~A3_ProviderNumber(x)  & ~A5_ProviderNumber(x) ))
forall x:(A5_ProviderNumber(x) -> ( ~A0_ProviderNumber(x)  & ~A1_ProviderNumber(x)  & ~A2_ProviderNumber(x)  & ~A3_ProviderNumber(x)  & ~A4_ProviderNumber(x) ))
forall x:(A0_HospitalName(x) -> ( ~A1_HospitalName(x)  & ~A2_HospitalName(x)  & ~A3_HospitalName(x)  & ~A4_HospitalName(x) ))
forall x:(A1_HospitalName(x) -> ( ~A0_HospitalName(x)  & ~A2_HospitalName(x)  & ~A3_HospitalName(x)  & ~A4_HospitalName(x) ))
forall x:(A2_HospitalName(x) -> ( ~A0_HospitalName(x)  & ~A1_HospitalName(x)  & ~A3_HospitalName(x)  & ~A4_HospitalName(x) ))
forall x:(A3_HospitalName(x) -> ( ~A0_HospitalName(x)  & ~A1_HospitalName(x)  & ~A2_HospitalName(x)  & ~A4_HospitalName(x) ))
forall x:(A4_HospitalName(x) -> ( ~A0_HospitalName(x)  & ~A1_HospitalName(x)  & ~A2_HospitalName(x)  & ~A3_HospitalName(x) ))
forall x:(A0_Address1(x) -> ( ~A1_Address1(x)  & ~A2_Address1(x)  & ~A3_Address1(x)  & ~A4_Address1(x) ))
forall x:(A1_Address1(x) -> ( ~A0_Address1(x)  & ~A2_Address1(x)  & ~A3_Address1(x)  & ~A4_Address1(x) ))
forall x:(A2_Address1(x) -> ( ~A0_Address1(x)  & ~A1_Address1(x)  & ~A3_Address1(x)  & ~A4_Address1(x) ))
forall x:(A3_Address1(x) -> ( ~A0_Address1(x)  & ~A1_Address1(x)  & ~A2_Address1(x)  & ~A4_Address1(x) ))
forall x:(A4_Address1(x) -> ( ~A0_Address1(x)  & ~A1_Address1(x)  & ~A2_Address1(x)  & ~A3_Address1(x) ))
