ProviderNumber,HospitalName,Address1
10018,CallahanEyeFoundationHospital,1720UniversityBlvd
10018,CallahanEyeFoundationHospital,1720UniversityBlvd
10018,CallahanEyeFoundationHospital,1720UniversityBlvd
10018,CallahanEyeFoundationHospital,1720UniversityBlvd
10018,CallahanEyeFoundationHospital,1720UniversityBlvd
10018,CallahanEyeFoundationHospital,1720UniversityBlvd
10018,CallahanEyeFoundationHospital,1720UniversityBlvd
10018,CallahanEyeFoundationHospital,1720UniversityBlvd
10019,HelenKellerMemorialHospital,1300SouthMontgomeryAvenue
10019,HelenKellerMemorialHospital,1300SouthMontgomeryAvenue
10019,HelenKellerMemorialHospital,1300SouthMontgomeryAvenue
10019,HelenKellerMemorialHospital,1300SouthMontgomeryAvenue
10019,HelenKellerMemorialHospital,1300SouthMontgomeryAvenue
1xx19,HelenKellerMemorialHospital,1300SouthMontgomeryAvenue
10019,HelenKellerMemorialHospital,1300SouthMontgomeryAvenue
10019,HelenKellerMemorialHospital,1300SouthMontgomeryAvenue
10019,HelenKellerMemorialHospital,1300SouthMontgomeryAvenue
10019,HelenKellerMemorialHospital,1300SouthMontgomeryAvenue
10019,HelenKellerMemorialHospital,1300SouthMontgomeryAvenue