C,A(ax_1),B(ax_1),ERR(ax_1),G(ax_1),L(ax_1),M(ax_1),S(ax_1)
0,F,T,U,F,T,T,T
1,F,T,U,F,T,T,T
0,F,T,U,F,T,T,T
1,F,T,U,F,T,T,T
0,F,T,F,F,T,T,T
1,F,T,U,F,T,T,T
0,F,T,F,F,T,T,T
1,T,T,U,F,T,F,T
0,T,T,T,F,T,F,T
1,F,T,U,F,T,T,T
0,F,T,U,F,T,T,T
1,F,T,U,F,T,T,T
0,T,T,U,F,T,F,T
1,T,T,U,F,T,F,T
0,F,T,U,F,T,T,T
1,F,T,U,F,T,T,T
0,F,T,U,F,T,T,T
1,F,T,U,F,T,T,T
0,F,T,U,F,T,T,T
1,F,T,U,F,T,T,T
0,F,T,U,F,T,T,T
1,T,T,U,F,T,F,T
0,F,T,T,F,T,T,T
1,F,T,U,F,T,T,T
0,F,T,U,F,T,T,T
1,F,T,U,F,T,T,T
0,T,T,U,F,T,F,T
1,F,T,U,F,T,T,T
0,F,T,F,F,T,T,T
1,T,T,U,F,T,F,T
0,U,T,U,F,T,U,T
1,F,T,F,F,T,T,T
0,F,T,U,F,T,T,T
1,F,T,U,F,T,T,T
0,F,T,U,F,T,T,T
1,F,T,T,F,T,T,T
0,T,T,U,F,T,F,T
1,T,T,U,F,T,F,T
0,F,T,U,F,T,T,T
1,F,T,F,F,T,T,T
0,F,T,U,F,T,T,T
1,F,T,U,F,T,T,T
0,T,T,U,F,T,F,T
1,F,T,U,F,T,T,T
0,F,T,U,F,T,T,T
1,F,T,U,F,T,T,T
0,F,T,F,F,T,T,T
1,F,T,U,F,T,T,T
0,F,T,U,F,T,T,T
1,F,T,U,F,T,T,T
0,F,T,U,F,T,T,T
1,F,T,U,F,T,T,T
0,T,T,U,F,T,F,T
1,F,T,U,F,T,T,T
0,T,T,U,F,T,F,T
1,T,T,U,F,T,F,T
0,F,T,U,F,T,T,T
1,F,T,U,F,T,T,T
0,F,T,U,F,T,T,T
1,F,T,U,F,T,T,T
0,T,T,U,F,T,F,T
1,T,T,U,F,T,F,T
0,F,T,U,F,T,T,T
1,F,T,U,F,T,T,T
0,F,T,T,F,T,T,T
1,T,T,U,F,T,F,T
0,F,T,U,F,T,T,T
1,F,T,U,F,T,T,T
0,F,T,U,F,T,T,T
1,U,T,U,F,T,F,T
0,T,T,U,F,T,F,T
1,T,T,U,F,T,F,T
0,F,T,U,F,T,T,T
1,F,T,T,F,T,T,T
0,F,T,U,F,T,T,T
1,T,T,T,F,T,F,T
0,F,T,U,F,T,T,T
1,F,T,U,F,T,T,T
0,T,T,U,F,T,F,T
1,F,T,U,F,T,T,T
0,F,T,U,F,T,T,T
1,T,T,U,F,T,F,T
0,F,T,U,F,T,T,T
1,F,T,U,F,T,T,T
0,F,T,U,F,T,T,T
1,F,T,U,F,T,T,T
0,F,T,U,F,T,T,T
1,F,T,U,F,T,T,T
0,T,T,U,F,T,F,T
1,F,T,U,F,T,T,T
0,T,T,U,F,T,F,T
1,F,T,U,F,T,T,T
0,F,T,U,F,T,T,T
1,F,T,U,F,T,T,T
0,F,T,U,F,T,T,T
1,F,T,U,F,T,T,T
0,F,T,U,F,T,T,T
1,F,T,U,F,T,T,T
0,F,T,U,F,T,T,T
1,T,T,U,F,T,F,T
0,F,T,U,F,T,T,T
1,T,T,U,F,T,F,T
0,U,T,U,F,T,F,T
1,T,T,T,F,T,F,T
0,T,T,U,F,T,F,T
1,F,T,U,F,T,U,T
0,F,T,U,F,T,T,T
1,F,T,F,F,T,T,T
0,F,T,U,F,T,T,T
1,F,T,U,F,T,T,T
